…
'purpose' and 'damType' variables has some missing data.

### Question 9

The following code reveals if any of the observations have missing data or not.

``` r
miss_case_summary(DamsTibble)
```

    ## # A tibble: 5,271 x 3
    ##     case n_missing percent
    ##    <int>     <int>   <dbl>
    ##  1  1830         2   13.3 
    ##  2  1831         2   13.3 
    ##  3   465         1    6.67
    ##  4  1080         1    6.67
    ##  5  1618         1    6.67
    ##  6  1682         1    6.67
    ##  7  1683         1    6.67
    ##  8  1694         1    6.67
    ##  9  1695         1    6.67
    ## 10  1709         1    6.67
    ## # ... with 5,261 more rows
…
